{
  "addons": {
    "{be713ef3-08d2-493f-8079-1f0e4fdd4db7}": {
      "updates": [
        {
          "version": "0.1.1",
          "update_link": "https://bitbucket.org/utmandrew/uoft-myaccess/src/master/uoft-myaccess-0.1.1.xpi"
        }
      ]
    }
  }
}
